<?xml version="1.0" encoding="utf-8"?>
<!-- Generator: Adobe Illustrator 20.0.0, SVG Export Plug-In . SVG Version: 6.00 Build 0)  -->
<svg version="1.1" id="Layer_1" xmlns="http://www.w3.org/2000/svg" xmlns:xlink="http://www.w3.org/1999/xlink" x="0px" y="0px"
	 viewBox="0 0 640 480" style="enable-background:new 0 0 640 480;" xml:space="preserve">
<style type="text/css">
	.st0{fill:none;stroke:#3E664B;stroke-width:14;stroke-miterlimit:10;}
	.st1{fill:none;}
	.st2{fill:#E84C4C;stroke:#FFFFFF;stroke-miterlimit:10;}
	.st3{font-family:'MyriadPro-BoldCond';}
	.st4{font-size:155.6963px;}
	.st5{letter-spacing:7.5;}
</style>
<g>
	<line class="st0" x1="382.5" y1="136.6" x2="75.1" y2="136.6"/>
	<line class="st0" x1="311.5" y1="292" x2="166" y2="292"/>
	<line class="st0" x1="311.5" y1="216.4" x2="120.9" y2="216.4"/>
	<line class="st0" x1="343.6" y1="63" x2="20.5" y2="63"/>
	<g>
		<path d="M485.8,89.2c-38-53.3-60.7-65.6-60.7-65.6c-7.3,24.5,0,52.6,0,52.6L485.8,89.2z"/>
		<path class="st1" d="M464.8,118.8l43.8,33.9v-15.9C499.2,122.1,464.8,118.8,464.8,118.8z"/>
		<path class="st1" d="M474.8,331.7c4.4,5.4,13.2-4.3,13.2-4.3s0,0-20.8-40s12.1-61.6,12.1-61.6s5.4,4,12.2,8.3
			c5.5,3.5,12,7.1,17.4,9c12.1,4.3,28.5,0,28.5,0h21.9c-16.4-7.6-7.7-20.5-7.7-20.5l34-4.3c-21.9-15.1-40.6-6.5-40.6-6.5l-19.7,8.6
			c-16.4,0-19.7-4.3-19.7-4.3l-12.1-3.2l-15.3-7.6c0,0-12.1-18.4-19.7-27s-13.2-11.9-13.2-11.9c-31.8-13-49.3-8.6-49.3-8.6l21.9,8.6
			l-41.7,14.1c0,0-43.9,32.4-23,19.5c20.8-13,38.4-9.7,38.4-9.7s-39.5,31.4-27.4,37.8c12.1,6.5,29.6-23.8,29.6-23.8h14.3v9.7
			l-1.1,19.5c0,0,2.2,11.9,6.6,22.7c1.5,3.7,12.1,24.9-1.1,19.5c-13.2-5.4-16.4-9.7-17.5-23.8c-1.1-14.1-8.8-18.4-8.8-18.4
			s-6.6,8.6-9.9,9.7c-3.3,1.1-28.5,30.3-39.5,50.8s-17.5,43.2-17.5,43.2l23-14.1l-5.5,16.3h119.5c-4-10.5-6.6-19.5-6.6-19.5
			S470.4,326.3,474.8,331.7z"/>
		<path d="M517.6,329.6c-2.2-13-73.5-63.8-32.9-86.5c0,0,94.3,35.7,89.9,17.3c-4.4-18.4,25.2-17.3,25.2-17.3l15.3-11.9
			c0,0,9.9-23.8,0-23.8s-50.4-23.8-50.4-23.8l-23-26.6l-28.5-49l-94.3-29.2l-85.5-42.2c0,0-12.1,45.4,11,74.6l11,14.1
			c0,0-37.3,38.9-50.4,42.2s13.2,9.7,13.2,9.7l-74.6,75.7c0,38.9,6.6,64.9,6.6,64.9s1.7,6.9,6,21.7h80.6l5.5-16.3l-23,14.1
			c0,0,6.6-22.7,17.5-43.2s36.2-49.7,39.5-50.8c3.3-1.1,9.9-9.7,9.9-9.7s7.7,4.3,8.8,18.4c1.1,14.1,4.4,18.4,17.5,23.8
			c13.2,5.4,2.6-15.8,1.1-19.5c-4.4-10.8-6.6-22.7-6.6-22.7l1.1-19.5v-9.7h-14.3c0,0-17.5,30.3-29.6,23.8
			c-12.1-6.5,27.4-37.8,27.4-37.8s-17.5-3.2-38.4,9.7c-20.8,13,23-19.5,23-19.5l41.7-14.1l-21.9-8.6c0,0,17.5-4.3,49.3,8.6
			c0,0,5.5,3.2,13.2,11.9s19.7,27,19.7,27l15.3,7.6l12.1,3.2c0,0,3.3,4.3,19.7,4.3l19.7-8.6c0,0,18.6-8.6,40.6,6.5l-34,4.3
			c0,0-8.8,13,7.7,20.5h-21.9c0,0-16.4,4.3-28.5,0c-5.4-1.9-11.9-5.6-17.4-9c-6.8-4.3-12.2-8.3-12.2-8.3s-32.9,21.6-12.1,61.6
			s20.8,40,20.8,40s-8.8,9.7-13.2,4.3c-4.4-5.4-25.2-11.9-25.2-11.9s2.6,9,6.6,19.5h51.6C514,337.2,518.3,334,517.6,329.6z
			 M508.6,152.6l-43.8-33.9c0,0,34.3,3.3,43.8,17.9V152.6z"/>
	</g>
	<text transform="matrix(1.5956 0 0 1 174.6436 449.3581)" class="st2 st3 st4 st5">DIRE</text>
</g>
</svg>
